^C:\USERS\B\DROPBOX\FMC\FREETYPE-2.5.2\SRC\AUTOFIT\AUTOFIT.C
/c /I..\..\..\include /nologo /W4 /WX- /O2 /Ob1 /D NDEBUG /D WIN32 /D _LIB /D _CRT_SECURE_NO_WARNINGS /D FT2_BUILD_LIBRARY /D _MBCS /GF /Gm- /EHsc /MT /GS /Gy /fp:precise /Za /Zc:wchar_t /Zc:forScope /Fo"X64\RELEASE SINGLETHREADED\\" /Fd"X64\RELEASE SINGLETHREADED\VC110.PDB" /Gd /TC /wd4001 C:\USERS\B\DROPBOX\FMC\FREETYPE-2.5.2\SRC\AUTOFIT\AUTOFIT.C
^C:\USERS\B\DROPBOX\FMC\FREETYPE-2.5.2\SRC\BDF\BDF.C
/c /I..\..\..\include /nologo /W4 /WX- /O2 /Ob1 /D NDEBUG /D WIN32 /D _LIB /D _CRT_SECURE_NO_WARNINGS /D FT2_BUILD_LIBRARY /D _MBCS /GF /Gm- /EHsc /MT /GS /Gy /fp:precise /Za /Zc:wchar_t /Zc:forScope /Fo"X64\RELEASE SINGLETHREADED\\" /Fd"X64\RELEASE SINGLETHREADED\VC110.PDB" /Gd /TC /wd4001 C:\USERS\B\DROPBOX\FMC\FREETYPE-2.5.2\SRC\BDF\BDF.C
^C:\USERS\B\DROPBOX\FMC\FREETYPE-2.5.2\SRC\CFF\CFF.C
/c /I..\..\..\include /nologo /W4 /WX- /O2 /Ob1 /D NDEBUG /D WIN32 /D _LIB /D _CRT_SECURE_NO_WARNINGS /D FT2_BUILD_LIBRARY /D _MBCS /GF /Gm- /EHsc /MT /GS /Gy /fp:precise /Za /Zc:wchar_t /Zc:forScope /Fo"X64\RELEASE SINGLETHREADED\\" /Fd"X64\RELEASE SINGLETHREADED\VC110.PDB" /Gd /TC /wd4001 C:\USERS\B\DROPBOX\FMC\FREETYPE-2.5.2\SRC\CFF\CFF.C
^C:\USERS\B\DROPBOX\FMC\FREETYPE-2.5.2\SRC\BASE\FTBASE.C
/c /I..\..\..\include /nologo /W4 /WX- /O2 /Ob1 /D NDEBUG /D WIN32 /D _LIB /D _CRT_SECURE_NO_WARNINGS /D FT2_BUILD_LIBRARY /D _MBCS /GF /Gm- /EHsc /MT /GS /Gy /fp:precise /Za /Zc:wchar_t /Zc:forScope /Fo"X64\RELEASE SINGLETHREADED\\" /Fd"X64\RELEASE SINGLETHREADED\VC110.PDB" /Gd /TC /wd4001 C:\USERS\B\DROPBOX\FMC\FREETYPE-2.5.2\SRC\BASE\FTBASE.C
^C:\USERS\B\DROPBOX\FMC\FREETYPE-2.5.2\SRC\BASE\FTBITMAP.C
/c /I..\..\..\include /nologo /W4 /WX- /O2 /Ob1 /D NDEBUG /D WIN32 /D _LIB /D _CRT_SECURE_NO_WARNINGS /D FT2_BUILD_LIBRARY /D _MBCS /GF /Gm- /EHsc /MT /GS /Gy /fp:precise /Za /Zc:wchar_t /Zc:forScope /Fo"X64\RELEASE SINGLETHREADED\\" /Fd"X64\RELEASE SINGLETHREADED\VC110.PDB" /Gd /TC /wd4001 C:\USERS\B\DROPBOX\FMC\FREETYPE-2.5.2\SRC\BASE\FTBITMAP.C
^C:\USERS\B\DROPBOX\FMC\FREETYPE-2.5.2\SRC\CACHE\FTCACHE.C
/c /I..\..\..\include /nologo /W4 /WX- /O2 /Ob1 /D NDEBUG /D WIN32 /D _LIB /D _CRT_SECURE_NO_WARNINGS /D FT2_BUILD_LIBRARY /D _MBCS /GF /Gm- /EHsc /MT /GS /Gy /fp:precise /Za /Zc:wchar_t /Zc:forScope /Fo"X64\RELEASE SINGLETHREADED\\" /Fd"X64\RELEASE SINGLETHREADED\VC110.PDB" /Gd /TC /wd4001 C:\USERS\B\DROPBOX\FMC\FREETYPE-2.5.2\SRC\CACHE\FTCACHE.C
^C:\USERS\B\DROPBOX\FMC\FREETYPE-2.5.2\SRC\BASE\FTFSTYPE.C
/c /I..\..\..\include /nologo /W4 /WX- /O2 /Ob1 /D NDEBUG /D WIN32 /D _LIB /D _CRT_SECURE_NO_WARNINGS /D FT2_BUILD_LIBRARY /D _MBCS /GF /Gm- /EHsc /MT /GS /Gy /fp:precise /Za /Zc:wchar_t /Zc:forScope /Fo"X64\RELEASE SINGLETHREADED\\" /Fd"X64\RELEASE SINGLETHREADED\VC110.PDB" /Gd /TC /wd4001 C:\USERS\B\DROPBOX\FMC\FREETYPE-2.5.2\SRC\BASE\FTFSTYPE.C
^C:\USERS\B\DROPBOX\FMC\FREETYPE-2.5.2\SRC\BASE\FTGASP.C
/c /I..\..\..\include /nologo /W4 /WX- /O2 /Ob1 /D NDEBUG /D WIN32 /D _LIB /D _CRT_SECURE_NO_WARNINGS /D FT2_BUILD_LIBRARY /D _MBCS /GF /Gm- /EHsc /MT /GS /Gy /fp:precise /Za /Zc:wchar_t /Zc:forScope /Fo"X64\RELEASE SINGLETHREADED\\" /Fd"X64\RELEASE SINGLETHREADED\VC110.PDB" /Gd /TC /wd4001 C:\USERS\B\DROPBOX\FMC\FREETYPE-2.5.2\SRC\BASE\FTGASP.C
^C:\USERS\B\DROPBOX\FMC\FREETYPE-2.5.2\SRC\BASE\FTGLYPH.C
/c /I..\..\..\include /nologo /W4 /WX- /O2 /Ob1 /D NDEBUG /D WIN32 /D _LIB /D _CRT_SECURE_NO_WARNINGS /D FT2_BUILD_LIBRARY /D _MBCS /GF /Gm- /EHsc /MT /GS /Gy /fp:precise /Za /Zc:wchar_t /Zc:forScope /Fo"X64\RELEASE SINGLETHREADED\\" /Fd"X64\RELEASE SINGLETHREADED\VC110.PDB" /Gd /TC /wd4001 C:\USERS\B\DROPBOX\FMC\FREETYPE-2.5.2\SRC\BASE\FTGLYPH.C
^C:\USERS\B\DROPBOX\FMC\FREETYPE-2.5.2\SRC\GZIP\FTGZIP.C
/c /I..\..\..\include /nologo /W4 /WX- /O2 /Ob1 /D NDEBUG /D WIN32 /D _LIB /D _CRT_SECURE_NO_WARNINGS /D FT2_BUILD_LIBRARY /D _MBCS /GF /Gm- /EHsc /MT /GS /Gy /fp:precise /Za /Zc:wchar_t /Zc:forScope /Fo"X64\RELEASE SINGLETHREADED\\" /Fd"X64\RELEASE SINGLETHREADED\VC110.PDB" /Gd /TC /wd4001 C:\USERS\B\DROPBOX\FMC\FREETYPE-2.5.2\SRC\GZIP\FTGZIP.C
^C:\USERS\B\DROPBOX\FMC\FREETYPE-2.5.2\SRC\BASE\FTINIT.C
/c /I..\..\..\include /nologo /W4 /WX- /O2 /Ob1 /D NDEBUG /D WIN32 /D _LIB /D _CRT_SECURE_NO_WARNINGS /D FT2_BUILD_LIBRARY /D _MBCS /GF /Gm- /EHsc /MT /GS /Gy /fp:precise /Za /Zc:wchar_t /Zc:forScope /Fo"X64\RELEASE SINGLETHREADED\\" /Fd"X64\RELEASE SINGLETHREADED\VC110.PDB" /Gd /TC /wd4001 C:\USERS\B\DROPBOX\FMC\FREETYPE-2.5.2\SRC\BASE\FTINIT.C
^C:\USERS\B\DROPBOX\FMC\FREETYPE-2.5.2\SRC\LZW\FTLZW.C
/c /I..\..\..\include /nologo /W4 /WX- /O2 /Ob1 /D NDEBUG /D WIN32 /D _LIB /D _CRT_SECURE_NO_WARNINGS /D FT2_BUILD_LIBRARY /D _MBCS /GF /Gm- /EHsc /MT /GS /Gy /fp:precise /Za /Zc:wchar_t /Zc:forScope /Fo"X64\RELEASE SINGLETHREADED\\" /Fd"X64\RELEASE SINGLETHREADED\VC110.PDB" /Gd /TC /wd4001 C:\USERS\B\DROPBOX\FMC\FREETYPE-2.5.2\SRC\LZW\FTLZW.C
^C:\USERS\B\DROPBOX\FMC\FREETYPE-2.5.2\SRC\BASE\FTSTROKE.C
/c /I..\..\..\include /nologo /W4 /WX- /O2 /Ob1 /D NDEBUG /D WIN32 /D _LIB /D _CRT_SECURE_NO_WARNINGS /D FT2_BUILD_LIBRARY /D _MBCS /GF /Gm- /EHsc /MT /GS /Gy /fp:precise /Za /Zc:wchar_t /Zc:forScope /Fo"X64\RELEASE SINGLETHREADED\\" /Fd"X64\RELEASE SINGLETHREADED\VC110.PDB" /Gd /TC /wd4001 C:\USERS\B\DROPBOX\FMC\FREETYPE-2.5.2\SRC\BASE\FTSTROKE.C
^C:\USERS\B\DROPBOX\FMC\FREETYPE-2.5.2\SRC\BASE\FTSYSTEM.C
/c /I..\..\..\include /nologo /W4 /WX- /O2 /Ob1 /D NDEBUG /D WIN32 /D _LIB /D _CRT_SECURE_NO_WARNINGS /D FT2_BUILD_LIBRARY /D _MBCS /GF /Gm- /EHsc /MT /GS /Gy /fp:precise /Za /Zc:wchar_t /Zc:forScope /Fo"X64\RELEASE SINGLETHREADED\\" /Fd"X64\RELEASE SINGLETHREADED\VC110.PDB" /Gd /TC /wd4001 C:\USERS\B\DROPBOX\FMC\FREETYPE-2.5.2\SRC\BASE\FTSYSTEM.C
^C:\USERS\B\DROPBOX\FMC\FREETYPE-2.5.2\SRC\SMOOTH\SMOOTH.C
/c /I..\..\..\include /nologo /W4 /WX- /O2 /Ob1 /D NDEBUG /D WIN32 /D _LIB /D _CRT_SECURE_NO_WARNINGS /D FT2_BUILD_LIBRARY /D _MBCS /GF /Gm- /EHsc /MT /GS /Gy /fp:precise /Za /Zc:wchar_t /Zc:forScope /Fo"X64\RELEASE SINGLETHREADED\\" /Fd"X64\RELEASE SINGLETHREADED\VC110.PDB" /Gd /TC /wd4001 C:\USERS\B\DROPBOX\FMC\FREETYPE-2.5.2\SRC\SMOOTH\SMOOTH.C
^C:\USERS\B\DROPBOX\FMC\FREETYPE-2.5.2\SRC\BASE\FTBBOX.C
/c /I..\..\..\include /nologo /W4 /WX- /O2 /Ob1 /D NDEBUG /D WIN32 /D _LIB /D _CRT_SECURE_NO_WARNINGS /D FT2_BUILD_LIBRARY /D _MBCS /GF /Gm- /EHsc /MT /GS /Gy /fp:precise /Za /Zc:wchar_t /Zc:forScope /Fo"X64\RELEASE SINGLETHREADED\\" /Fd"X64\RELEASE SINGLETHREADED\VC110.PDB" /Gd /TC /wd4001 C:\USERS\B\DROPBOX\FMC\FREETYPE-2.5.2\SRC\BASE\FTBBOX.C
^C:\USERS\B\DROPBOX\FMC\FREETYPE-2.5.2\SRC\BASE\FTMM.C
/c /I..\..\..\include /nologo /W4 /WX- /O2 /Ob1 /D NDEBUG /D WIN32 /D _LIB /D _CRT_SECURE_NO_WARNINGS /D FT2_BUILD_LIBRARY /D _MBCS /GF /Gm- /EHsc /MT /GS /Gy /fp:precise /Za /Zc:wchar_t /Zc:forScope /Fo"X64\RELEASE SINGLETHREADED\\" /Fd"X64\RELEASE SINGLETHREADED\VC110.PDB" /Gd /TC /wd4001 C:\USERS\B\DROPBOX\FMC\FREETYPE-2.5.2\SRC\BASE\FTMM.C
^C:\USERS\B\DROPBOX\FMC\FREETYPE-2.5.2\SRC\BASE\FTPFR.C
/c /I..\..\..\include /nologo /W4 /WX- /O2 /Ob1 /D NDEBUG /D WIN32 /D _LIB /D _CRT_SECURE_NO_WARNINGS /D FT2_BUILD_LIBRARY /D _MBCS /GF /Gm- /EHsc /MT /GS /Gy /fp:precise /Za /Zc:wchar_t /Zc:forScope /Fo"X64\RELEASE SINGLETHREADED\\" /Fd"X64\RELEASE SINGLETHREADED\VC110.PDB" /Gd /TC /wd4001 C:\USERS\B\DROPBOX\FMC\FREETYPE-2.5.2\SRC\BASE\FTPFR.C
^C:\USERS\B\DROPBOX\FMC\FREETYPE-2.5.2\SRC\BASE\FTSYNTH.C
/c /I..\..\..\include /nologo /W4 /WX- /O2 /Ob1 /D NDEBUG /D WIN32 /D _LIB /D _CRT_SECURE_NO_WARNINGS /D FT2_BUILD_LIBRARY /D _MBCS /GF /Gm- /EHsc /MT /GS /Gy /fp:precise /Za /Zc:wchar_t /Zc:forScope /Fo"X64\RELEASE SINGLETHREADED\\" /Fd"X64\RELEASE SINGLETHREADED\VC110.PDB" /Gd /TC /wd4001 C:\USERS\B\DROPBOX\FMC\FREETYPE-2.5.2\SRC\BASE\FTSYNTH.C
^C:\USERS\B\DROPBOX\FMC\FREETYPE-2.5.2\SRC\BASE\FTTYPE1.C
/c /I..\..\..\include /nologo /W4 /WX- /O2 /Ob1 /D NDEBUG /D WIN32 /D _LIB /D _CRT_SECURE_NO_WARNINGS /D FT2_BUILD_LIBRARY /D _MBCS /GF /Gm- /EHsc /MT /GS /Gy /fp:precise /Za /Zc:wchar_t /Zc:forScope /Fo"X64\RELEASE SINGLETHREADED\\" /Fd"X64\RELEASE SINGLETHREADED\VC110.PDB" /Gd /TC /wd4001 C:\USERS\B\DROPBOX\FMC\FREETYPE-2.5.2\SRC\BASE\FTTYPE1.C
^C:\USERS\B\DROPBOX\FMC\FREETYPE-2.5.2\SRC\BASE\FTWINFNT.C
/c /I..\..\..\include /nologo /W4 /WX- /O2 /Ob1 /D NDEBUG /D WIN32 /D _LIB /D _CRT_SECURE_NO_WARNINGS /D FT2_BUILD_LIBRARY /D _MBCS /GF /Gm- /EHsc /MT /GS /Gy /fp:precise /Za /Zc:wchar_t /Zc:forScope /Fo"X64\RELEASE SINGLETHREADED\\" /Fd"X64\RELEASE SINGLETHREADED\VC110.PDB" /Gd /TC /wd4001 C:\USERS\B\DROPBOX\FMC\FREETYPE-2.5.2\SRC\BASE\FTWINFNT.C
^C:\USERS\B\DROPBOX\FMC\FREETYPE-2.5.2\SRC\BASE\FTXF86.C
/c /I..\..\..\include /nologo /W4 /WX- /O2 /Ob1 /D NDEBUG /D WIN32 /D _LIB /D _CRT_SECURE_NO_WARNINGS /D FT2_BUILD_LIBRARY /D _MBCS /GF /Gm- /EHsc /MT /GS /Gy /fp:precise /Za /Zc:wchar_t /Zc:forScope /Fo"X64\RELEASE SINGLETHREADED\\" /Fd"X64\RELEASE SINGLETHREADED\VC110.PDB" /Gd /TC /wd4001 C:\USERS\B\DROPBOX\FMC\FREETYPE-2.5.2\SRC\BASE\FTXF86.C
^C:\USERS\B\DROPBOX\FMC\FREETYPE-2.5.2\SRC\BASE\FTLCDFIL.C
/c /I..\..\..\include /nologo /W4 /WX- /O2 /Ob1 /D NDEBUG /D WIN32 /D _LIB /D _CRT_SECURE_NO_WARNINGS /D FT2_BUILD_LIBRARY /D _MBCS /GF /Gm- /EHsc /MT /GS /Gy /fp:precise /Za /Zc:wchar_t /Zc:forScope /Fo"X64\RELEASE SINGLETHREADED\\" /Fd"X64\RELEASE SINGLETHREADED\VC110.PDB" /Gd /TC /wd4001 C:\USERS\B\DROPBOX\FMC\FREETYPE-2.5.2\SRC\BASE\FTLCDFIL.C
^C:\USERS\B\DROPBOX\FMC\FREETYPE-2.5.2\SRC\BASE\FTGXVAL.C
/c /I..\..\..\include /nologo /W4 /WX- /O2 /Ob1 /D NDEBUG /D WIN32 /D _LIB /D _CRT_SECURE_NO_WARNINGS /D FT2_BUILD_LIBRARY /D _MBCS /GF /Gm- /EHsc /MT /GS /Gy /fp:precise /Za /Zc:wchar_t /Zc:forScope /Fo"X64\RELEASE SINGLETHREADED\\" /Fd"X64\RELEASE SINGLETHREADED\VC110.PDB" /Gd /TC /wd4001 C:\USERS\B\DROPBOX\FMC\FREETYPE-2.5.2\SRC\BASE\FTGXVAL.C
^C:\USERS\B\DROPBOX\FMC\FREETYPE-2.5.2\SRC\BASE\FTOTVAL.C
/c /I..\..\..\include /nologo /W4 /WX- /O2 /Ob1 /D NDEBUG /D WIN32 /D _LIB /D _CRT_SECURE_NO_WARNINGS /D FT2_BUILD_LIBRARY /D _MBCS /GF /Gm- /EHsc /MT /GS /Gy /fp:precise /Za /Zc:wchar_t /Zc:forScope /Fo"X64\RELEASE SINGLETHREADED\\" /Fd"X64\RELEASE SINGLETHREADED\VC110.PDB" /Gd /TC /wd4001 C:\USERS\B\DROPBOX\FMC\FREETYPE-2.5.2\SRC\BASE\FTOTVAL.C
^C:\USERS\B\DROPBOX\FMC\FREETYPE-2.5.2\SRC\BASE\FTPATENT.C
/c /I..\..\..\include /nologo /W4 /WX- /O2 /Ob1 /D NDEBUG /D WIN32 /D _LIB /D _CRT_SECURE_NO_WARNINGS /D FT2_BUILD_LIBRARY /D _MBCS /GF /Gm- /EHsc /MT /GS /Gy /fp:precise /Za /Zc:wchar_t /Zc:forScope /Fo"X64\RELEASE SINGLETHREADED\\" /Fd"X64\RELEASE SINGLETHREADED\VC110.PDB" /Gd /TC /wd4001 C:\USERS\B\DROPBOX\FMC\FREETYPE-2.5.2\SRC\BASE\FTPATENT.C
^C:\USERS\B\DROPBOX\FMC\FREETYPE-2.5.2\SRC\PCF\PCF.C
/c /I..\..\..\include /nologo /W4 /WX- /O2 /Ob1 /D NDEBUG /D WIN32 /D _LIB /D _CRT_SECURE_NO_WARNINGS /D FT2_BUILD_LIBRARY /D _MBCS /GF /Gm- /EHsc /MT /GS /Gy /fp:precise /Za /Zc:wchar_t /Zc:forScope /Fo"X64\RELEASE SINGLETHREADED\\" /Fd"X64\RELEASE SINGLETHREADED\VC110.PDB" /Gd /TC /wd4001 C:\USERS\B\DROPBOX\FMC\FREETYPE-2.5.2\SRC\PCF\PCF.C
^C:\USERS\B\DROPBOX\FMC\FREETYPE-2.5.2\SRC\PFR\PFR.C
/c /I..\..\..\include /nologo /W4 /WX- /O2 /Ob1 /D NDEBUG /D WIN32 /D _LIB /D _CRT_SECURE_NO_WARNINGS /D FT2_BUILD_LIBRARY /D _MBCS /GF /Gm- /EHsc /MT /GS /Gy /fp:precise /Za /Zc:wchar_t /Zc:forScope /Fo"X64\RELEASE SINGLETHREADED\\" /Fd"X64\RELEASE SINGLETHREADED\VC110.PDB" /Gd /TC /wd4001 C:\USERS\B\DROPBOX\FMC\FREETYPE-2.5.2\SRC\PFR\PFR.C
^C:\USERS\B\DROPBOX\FMC\FREETYPE-2.5.2\SRC\PSAUX\PSAUX.C
/c /I..\..\..\include /nologo /W4 /WX- /O2 /Ob1 /D NDEBUG /D WIN32 /D _LIB /D _CRT_SECURE_NO_WARNINGS /D FT2_BUILD_LIBRARY /D _MBCS /GF /Gm- /EHsc /MT /GS /Gy /fp:precise /Za /Zc:wchar_t /Zc:forScope /Fo"X64\RELEASE SINGLETHREADED\\" /Fd"X64\RELEASE SINGLETHREADED\VC110.PDB" /Gd /TC /wd4001 C:\USERS\B\DROPBOX\FMC\FREETYPE-2.5.2\SRC\PSAUX\PSAUX.C
^C:\USERS\B\DROPBOX\FMC\FREETYPE-2.5.2\SRC\PSHINTER\PSHINTER.C
/c /I..\..\..\include /nologo /W4 /WX- /O2 /Ob1 /D NDEBUG /D WIN32 /D _LIB /D _CRT_SECURE_NO_WARNINGS /D FT2_BUILD_LIBRARY /D _MBCS /GF /Gm- /EHsc /MT /GS /Gy /fp:precise /Za /Zc:wchar_t /Zc:forScope /Fo"X64\RELEASE SINGLETHREADED\\" /Fd"X64\RELEASE SINGLETHREADED\VC110.PDB" /Gd /TC /wd4001 C:\USERS\B\DROPBOX\FMC\FREETYPE-2.5.2\SRC\PSHINTER\PSHINTER.C
^C:\USERS\B\DROPBOX\FMC\FREETYPE-2.5.2\SRC\PSNAMES\PSMODULE.C
/c /I..\..\..\include /nologo /W4 /WX- /O2 /Ob1 /D NDEBUG /D WIN32 /D _LIB /D _CRT_SECURE_NO_WARNINGS /D FT2_BUILD_LIBRARY /D _MBCS /GF /Gm- /EHsc /MT /GS /Gy /fp:precise /Za /Zc:wchar_t /Zc:forScope /Fo"X64\RELEASE SINGLETHREADED\\" /Fd"X64\RELEASE SINGLETHREADED\VC110.PDB" /Gd /TC /wd4001 C:\USERS\B\DROPBOX\FMC\FREETYPE-2.5.2\SRC\PSNAMES\PSMODULE.C
^C:\USERS\B\DROPBOX\FMC\FREETYPE-2.5.2\SRC\RASTER\RASTER.C
/c /I..\..\..\include /nologo /W4 /WX- /O2 /Ob1 /D NDEBUG /D WIN32 /D _LIB /D _CRT_SECURE_NO_WARNINGS /D FT2_BUILD_LIBRARY /D _MBCS /GF /Gm- /EHsc /MT /GS /Gy /fp:precise /Za /Zc:wchar_t /Zc:forScope /Fo"X64\RELEASE SINGLETHREADED\\" /Fd"X64\RELEASE SINGLETHREADED\VC110.PDB" /Gd /TC /wd4001 C:\USERS\B\DROPBOX\FMC\FREETYPE-2.5.2\SRC\RASTER\RASTER.C
^C:\USERS\B\DROPBOX\FMC\FREETYPE-2.5.2\SRC\SFNT\SFNT.C
/c /I..\..\..\include /nologo /W4 /WX- /O2 /Ob1 /D NDEBUG /D WIN32 /D _LIB /D _CRT_SECURE_NO_WARNINGS /D FT2_BUILD_LIBRARY /D _MBCS /GF /Gm- /EHsc /MT /GS /Gy /fp:precise /Za /Zc:wchar_t /Zc:forScope /Fo"X64\RELEASE SINGLETHREADED\\" /Fd"X64\RELEASE SINGLETHREADED\VC110.PDB" /Gd /TC /wd4001 C:\USERS\B\DROPBOX\FMC\FREETYPE-2.5.2\SRC\SFNT\SFNT.C
^C:\USERS\B\DROPBOX\FMC\FREETYPE-2.5.2\SRC\TRUETYPE\TRUETYPE.C
/c /I..\..\..\include /nologo /W4 /WX- /O2 /Ob1 /D NDEBUG /D WIN32 /D _LIB /D _CRT_SECURE_NO_WARNINGS /D FT2_BUILD_LIBRARY /D _MBCS /GF /Gm- /EHsc /MT /GS /Gy /fp:precise /Za /Zc:wchar_t /Zc:forScope /Fo"X64\RELEASE SINGLETHREADED\\" /Fd"X64\RELEASE SINGLETHREADED\VC110.PDB" /Gd /TC /wd4001 C:\USERS\B\DROPBOX\FMC\FREETYPE-2.5.2\SRC\TRUETYPE\TRUETYPE.C
^C:\USERS\B\DROPBOX\FMC\FREETYPE-2.5.2\SRC\TYPE1\TYPE1.C
/c /I..\..\..\include /nologo /W4 /WX- /O2 /Ob1 /D NDEBUG /D WIN32 /D _LIB /D _CRT_SECURE_NO_WARNINGS /D FT2_BUILD_LIBRARY /D _MBCS /GF /Gm- /EHsc /MT /GS /Gy /fp:precise /Za /Zc:wchar_t /Zc:forScope /Fo"X64\RELEASE SINGLETHREADED\\" /Fd"X64\RELEASE SINGLETHREADED\VC110.PDB" /Gd /TC /wd4001 C:\USERS\B\DROPBOX\FMC\FREETYPE-2.5.2\SRC\TYPE1\TYPE1.C
^C:\USERS\B\DROPBOX\FMC\FREETYPE-2.5.2\SRC\CID\TYPE1CID.C
/c /I..\..\..\include /nologo /W4 /WX- /O2 /Ob1 /D NDEBUG /D WIN32 /D _LIB /D _CRT_SECURE_NO_WARNINGS /D FT2_BUILD_LIBRARY /D _MBCS /GF /Gm- /EHsc /MT /GS /Gy /fp:precise /Za /Zc:wchar_t /Zc:forScope /Fo"X64\RELEASE SINGLETHREADED\\" /Fd"X64\RELEASE SINGLETHREADED\VC110.PDB" /Gd /TC /wd4001 C:\USERS\B\DROPBOX\FMC\FREETYPE-2.5.2\SRC\CID\TYPE1CID.C
^C:\USERS\B\DROPBOX\FMC\FREETYPE-2.5.2\SRC\TYPE42\TYPE42.C
/c /I..\..\..\include /nologo /W4 /WX- /O2 /Ob1 /D NDEBUG /D WIN32 /D _LIB /D _CRT_SECURE_NO_WARNINGS /D FT2_BUILD_LIBRARY /D _MBCS /GF /Gm- /EHsc /MT /GS /Gy /fp:precise /Za /Zc:wchar_t /Zc:forScope /Fo"X64\RELEASE SINGLETHREADED\\" /Fd"X64\RELEASE SINGLETHREADED\VC110.PDB" /Gd /TC /wd4001 C:\USERS\B\DROPBOX\FMC\FREETYPE-2.5.2\SRC\TYPE42\TYPE42.C
^C:\USERS\B\DROPBOX\FMC\FREETYPE-2.5.2\SRC\WINFONTS\WINFNT.C
/c /I..\..\..\include /nologo /W4 /WX- /O2 /Ob1 /D NDEBUG /D WIN32 /D _LIB /D _CRT_SECURE_NO_WARNINGS /D FT2_BUILD_LIBRARY /D _MBCS /GF /Gm- /EHsc /MT /GS /Gy /fp:precise /Za /Zc:wchar_t /Zc:forScope /Fo"X64\RELEASE SINGLETHREADED\\" /Fd"X64\RELEASE SINGLETHREADED\VC110.PDB" /Gd /TC /wd4001 C:\USERS\B\DROPBOX\FMC\FREETYPE-2.5.2\SRC\WINFONTS\WINFNT.C
^C:\USERS\B\DROPBOX\FMC\FREETYPE-2.5.2\BUILDS\WINDOWS\FTDEBUG.C
/c /I..\..\..\include /nologo /W4 /WX- /O2 /Ob1 /D NDEBUG /D WIN32 /D _LIB /D _CRT_SECURE_NO_WARNINGS /D FT2_BUILD_LIBRARY /D _MBCS /GF /Gm- /EHsc /MT /GS /Gy /fp:precise /Zc:wchar_t /Zc:forScope /Fo"X64\RELEASE SINGLETHREADED\\" /Fd"X64\RELEASE SINGLETHREADED\VC110.PDB" /Gd /TC /wd4001 C:\USERS\B\DROPBOX\FMC\FREETYPE-2.5.2\BUILDS\WINDOWS\FTDEBUG.C
